Cassia Roth’s Data Analysis Portfolio - ml-models-exercise
…
More processing

I can’t figure out the meaning of the numbers for the RACE variable. Nonetheless, here, we will recode so that RACE has three levels: 1, 2, and 3.

# Define "3" as a new level if it doesn't exist
mavo_ml$RACE <- fct_expand(mavo_ml$RACE, "3")

# Combine categories 7 and 88 into category 3
mavo_ml <- mavo_ml %>%
  mutate(RACE = fct_collapse(RACE, "3" = c("7", "88")))
mavo_ml

# A tibble: 120 × 7
       Y  DOSE   AGE SEX   RACE     WT    HT
   <dbl> <dbl> <dbl> <fct> <fct> <dbl> <dbl>
 1 2691.    25    42 1     2      94.3  1.77
 2 2639.    25    24 1     2      80.4  1.76
 3 2150.    25    31 1     1      71.8  1.81
 4 1789.    25    46 2     1      77.4  1.65
 5 3126.    25    41 2     2      64.3  1.56
 6 2337.    25    27 1     2      74.1  1.83
 7 3007.    25    23 1     1      87.9  1.85
 8 2796.    25    20 1     3      61.9  1.73
 9 3866.    25    23 1     2      65.3  1.65
10 1762.    25    28 1     1     104.   1.84
# ℹ 110 more rows
…
Some variables appear to be strongly correlated, but nothing is excessive (|>0.9|).

Feature Engineering

Don’t worry: feature engineering is just a “fancy” phrase for creating new variables. First we will create a new variable called BMI. Our measurements for height and weight are in the metric system (centimeters and kilograms, accordingly). According to the CDC the formula for BMI is: \([weight (kg) / [height (m)]^2\).

# Create a new variable called BMI
mavo_ml <- mavo_ml %>%
  mutate(BMI = (WT / (HT^2)))
mavo_ml

# A tibble: 120 × 8
       Y  DOSE   AGE SEX   RACE     WT    HT   BMI
   <dbl> <dbl> <dbl> <fct> <fct> <dbl> <dbl> <dbl>
 1 2691.    25    42 1     2      94.3  1.77  30.1
 2 2639.    25    24 1     2      80.4  1.76  26.0
 3 2150.    25    31 1     1      71.8  1.81  21.9
 4 1789.    25    46 2     1      77.4  1.65  28.4
 5 3126.    25    41 2     2      64.3  1.56  26.4
 6 2337.    25    27 1     2      74.1  1.83  22.1
 7 3007.    25    23 1     1      87.9  1.85  25.7
 8 2796.    25    20 1     3      61.9  1.73  20.7
 9 3866.    25    23 1     2      65.3  1.65  24.0
10 1762.    25    28 1     1     104.   1.84  30.6
# ℹ 110 more rows
…
