Cassia Roth’s Data Analysis Portfolio - Tidy Tuesday Exercise
…
We can see from our model output that our results are not significant (with a p-value of 0.6). This makes sense since we created a synthetic variable of whether or not an ostrich laid an egg during totality. As Dr. Handel said on Discord, “Remember that synthetic data is ‘made up’ so any conclusions you draw from it are also ‘fictional’.” Of course, we can use it to test models and explore codes. so let’s continue with CNN’s fantasy.

Model 1: Performance Assessment 1

Next, we will create a confusion matrix for our simple logistic model.

# Predicting outcome categories
class_preds <- log1_fit %>% predict(new_data = test_data, type = 'class') # New_data specifies dataset on which to predict new values; type class provides categorical predictions; standardized output from predict()
class_preds

# A tibble: 833 × 1
   .pred_class
   <fct>      
 1 1          
 2 1          
 3 1          
 4 1          
 5 1          
 6 1          
 7 1          
 8 1          
 9 1          
10 1          
# ℹ 823 more rows

# Estimating probabilities. Set type to prob to provide estimated probabilities for each outcome category
prob_preds <- log1_fit %>% predict(new_data = test_data, type = 'prob')
prob_preds

# A tibble: 833 × 2
   .pred_0 .pred_1
     <dbl>   <dbl>
 1   0.497   0.503
 2   0.487   0.513
 3   0.486   0.514
 4   0.483   0.517
 5   0.489   0.511
 6   0.495   0.505
 7   0.498   0.502
 8   0.478   0.522
 9   0.494   0.506
10   0.486   0.514
# ℹ 823 more rows
…
# Classification accuracy (generally not the best metric)
accuracy <- accuracy(log1_test_results, truth = OstrichReproduction, estimate = .pred_class)
accuracy

# A tibble: 1 × 3
  .metric  .estimator .estimate
  <chr>    <chr>          <dbl>
1 accuracy binary         0.490

# ROC (ROC used to visualize performance across probability thresholds)
roc <- log1_test_results %>%
  roc_curve(truth = OstrichReproduction, .pred_1)
roc

# A tibble: 221 × 3
   .threshold specificity sensitivity
        <dbl>       <dbl>       <dbl>
 1   -Inf         0             1    
 2      0.501     0             1    
 3      0.501     0             0.998
 4      0.501     0.00245       0.998
 5      0.501     0.00490       0.993
 6      0.501     0.00980       0.986
 7      0.502     0.0147        0.981
 8      0.502     0.0172        0.981
 9      0.502     0.0294        0.974
10      0.502     0.0294        0.969
# ℹ 211 more rows
…
# Classification accuracy
accuracy <- accuracy(log1_test_results, truth = OstrichReproduction, estimate = .pred_class)
accuracy

# A tibble: 1 × 3
  .metric  .estimator .estimate
  <chr>    <chr>          <dbl>
1 accuracy binary         0.490

# ROC (Receiver Operating Characteristic) curve
roc <- log1_test_results %>%
  roc_curve(truth = OstrichReproduction, .pred_1)
roc

# A tibble: 221 × 3
   .threshold specificity sensitivity
        <dbl>       <dbl>       <dbl>
 1   -Inf         0             1    
 2      0.501     0             1    
 3      0.501     0             0.998
 4      0.501     0.00245       0.998
 5      0.501     0.00490       0.993
 6      0.501     0.00980       0.986
 7      0.502     0.0147        0.981
 8      0.502     0.0172        0.981
 9      0.502     0.0294        0.974
10      0.502     0.0294        0.969
# ℹ 211 more rows
…
Like the simple logistic model, none of our predictors are statistically significant. It appears that total solar eclipses don’t have much to do with ostrich reproduction, if we take my synthetic data as truth. However, let’s see how the model performs.

Model 2: Peformance Assessment 1

We’ll go through the same steps as with the simple logistic regression. First, we’ll create a confusion matrix.

# Predicting outcome categories
class_preds <- log2_fit %>% predict(new_data = test_data, type = 'class') # New_data specifies dataset on which to predict new values; type class provides categorical predictions; standardized output from predict()
class_preds

# A tibble: 833 × 1
   .pred_class
   <fct>      
 1 1          
 2 1          
 3 1          
 4 1          
 5 1          
 6 1          
 7 1          
 8 1          
 9 1          
10 1          
# ℹ 823 more rows

# Estimating probabilities. Set type to prob to provide estimated probabilities for each outcome category
prob_preds <- log2_fit %>% predict(new_data = test_data, type = 'prob')
prob_preds

# A tibble: 833 × 2
   .pred_0 .pred_1
     <dbl>   <dbl>
 1   0.469   0.531
 2   0.451   0.549
 3   0.461   0.539
 4   0.448   0.552
 5   0.461   0.539
 6   0.463   0.537
 7   0.470   0.530
 8   0.438   0.562
 9   0.454   0.546
10   0.448   0.552
# ℹ 823 more rows
…
# Classification accuracy (generally not the best metric)
accuracy2 <- accuracy(log2_test_results, truth = OstrichReproduction, estimate = .pred_class)
accuracy

# A tibble: 1 × 3
  .metric  .estimator .estimate
  <chr>    <chr>          <dbl>
1 accuracy binary         0.490

# ROC (ROC used to visualize performance across probability thresholds)
roc2 <- log2_test_results %>%
  roc_curve(truth = OstrichReproduction, .pred_1)
roc2

# A tibble: 780 × 3
   .threshold specificity sensitivity
        <dbl>       <dbl>       <dbl>
 1   -Inf         0             1    
 2      0.405     0             1    
 3      0.405     0.00245       1    
 4      0.412     0.00490       1    
 5      0.414     0.00735       0.998
 6      0.420     0.00735       0.995
 7      0.434     0.00980       0.995
 8      0.436     0.00980       0.993
 9      0.437     0.00980       0.991
10      0.437     0.0123        0.991
# ℹ 770 more rows
…
# Classification accuracy
accuracy <- accuracy(log2_test_results, truth = OstrichReproduction, estimate = .pred_class)
accuracy

# A tibble: 1 × 3
  .metric  .estimator .estimate
  <chr>    <chr>          <dbl>
1 accuracy binary         0.508

# ROC (Receiver Operating Characteristic) curve
roc <- log2_test_results %>%
  roc_curve(truth = OstrichReproduction, .pred_1)
roc

# A tibble: 780 × 3
   .threshold specificity sensitivity
        <dbl>       <dbl>       <dbl>
 1   -Inf         0             1    
 2      0.405     0             1    
 3      0.405     0.00245       1    
 4      0.412     0.00490       1    
 5      0.414     0.00735       0.998
 6      0.420     0.00735       0.995
 7      0.434     0.00980       0.995
 8      0.436     0.00980       0.993
 9      0.437     0.00980       0.991
10      0.437     0.0123        0.991
# ℹ 770 more rows
…
Again, we see that our predictor variable is not statistically significant. Let’s check the performance of this model.

Model 3: Peformance Assessment 1

The metric we will optimize first is RMSE. We will also check R-squared and MAE for fun.

# Produce predictions for RMSE and R-squared
ln_pred <- predict(ln_fit, new_data = train_data %>% select(-totality))
ln_pred

# A tibble: 2,497 × 1
   .pred
   <dbl>
 1  185.
 2  185.
 3  185.
 4  185.
 5  185.
 6  185.
 7  185.
 8  185.
 9  185.
10  185.
# ℹ 2,487 more rows

# Predicted numeric outcome named .pred. Now we will match predicted values with corresponding observed outcome values
ln_pred <- bind_cols(ln_pred, train_data %>% select(totality))
ln_pred

# A tibble: 2,497 × 2
   .pred totality
   <dbl>    <dbl>
 1  185.       92
 2  185.      151
 3  185.      170
 4  185.      201
 5  185.      214
 6  185.      114
 7  185.      236
 8  185.      250
 9  185.      140
10  185.      227
# ℹ 2,487 more rows
…
After testing using CV, our RMSE is only slightly lower than our original model, at 62.5. R-squared is still very low at 0.002, although this is slightly higher than in our previous model. Guess what, ostrich reproduction remains a mystery.

Model 3: Test Data

Finally, let’s see how our model performs on our test data, test_data.

# Make predictions on training data
train_pred <- predict(ln_fit, new_data = train_data)
print(train_pred)

# A tibble: 2,497 × 1
   .pred
   <dbl>
 1  185.
 2  185.
 3  185.
 4  185.
 5  185.
 6  185.
 7  185.
 8  185.
 9  185.
10  185.
# ℹ 2,487 more rows

# Make predictions on test data
test_pred <- predict(ln_fit, new_data = test_data)
print(test_pred)

# A tibble: 833 × 1
   .pred
   <dbl>
 1  185.
 2  185.
 3  185.
 4  185.
 5  185.
 6  185.
 7  185.
 8  185.
 9  185.
10  185.
# ℹ 823 more rows
…
