Cassia Roth’s Data Analysis Portfolio - cdcdata-exercise
…
#Rename observations "Birth Rates"
cdcdata <- cdcdata %>%
  mutate(Topic = ifelse(Topic == "Birth Rates", str_replace(Topic, " ", "_"), Topic))

# Filter to include only observations where the "Topic" column contains "Birth_Rates"
cdcdata1 <- cdcdata %>% filter(Topic == "Birth_Rates")

#Print the modified cdcdata dataset
print(cdcdata1)

# A tibble: 572 × 9
    Year Quarter Topic   `Topic Subgroup` Indicator Race Ethnicity Categ…¹  Rate
   <dbl>   <dbl> <chr>   <chr>            <chr>     <chr>                  <dbl>
 1  2023       3 Birth_… Age-specific Bi… 10-14 ye… All races and origins    0.2
 2  2023       3 Birth_… Age-specific Bi… 10-14 ye… Hispanic                 0.3
 3  2023       3 Birth_… Age-specific Bi… 10-14 ye… Non-Hispanic Black       0.4
 4  2023       3 Birth_… Age-specific Bi… 10-14 ye… Non-Hispanic White       0.1
 5  2023       3 Birth_… Age-specific Bi… 15-19 ye… All races and origins   13.4
 6  2023       3 Birth_… Age-specific Bi… 15-19 ye… Hispanic                21.3
 7  2023       3 Birth_… Age-specific Bi… 15-19 ye… Non-Hispanic Black      19.7
 8  2023       3 Birth_… Age-specific Bi… 15-19 ye… Non-Hispanic White       8.7
 9  2023       3 Birth_… Age-specific Bi… 20-24 ye… All races and origins   56  
10  2023       3 Birth_… Age-specific Bi… 20-24 ye… Hispanic                78.3
# ℹ 562 more rows
# ℹ abbreviated name: ¹​`Race Ethnicity Category`
# ℹ 2 more variables: Unit <chr>, Significant <chr>
…
#Replace "Age-specific Birth Rates" with "Age_Specific" in the "Topic Subgroup" column
cdcdata1 <- cdcdata1 %>%
  mutate(`Topic Subgroup` = str_replace(`Topic Subgroup`, "Age-specific Birth Rates", "Age_Specific"))

#Remove the "Topic Subgroup" column and rename dataframe
cdcdata2 <- cdcdata1 %>%
  select(-`Topic Subgroup`)

#Print the modified cdcdata dataset
print(cdcdata2)

# A tibble: 352 × 7
    Year Quarter Indicator   `Race Ethnicity Category`  Rate Unit    Significant
   <dbl>   <dbl> <chr>       <chr>                     <dbl> <chr>   <chr>      
 1  2023       3 10-14 years All races and origins       0.2 per 1,… <NA>       
 2  2023       3 10-14 years Hispanic                    0.3 per 1,… <NA>       
 3  2023       3 10-14 years Non-Hispanic Black          0.4 per 1,… *          
 4  2023       3 10-14 years Non-Hispanic White          0.1 per 1,… <NA>       
 5  2023       3 15-19 years All races and origins      13.4 per 1,… *          
 6  2023       3 15-19 years Hispanic                   21.3 per 1,… *          
 7  2023       3 15-19 years Non-Hispanic Black         19.7 per 1,… *          
 8  2023       3 15-19 years Non-Hispanic White          8.7 per 1,… *          
 9  2023       3 20-24 years All races and origins      56   per 1,… *          
10  2023       3 20-24 years Hispanic                   78.3 per 1,… *          
# ℹ 342 more rows
…
#Convert the "Age_Years" column to a factor variable with custom levels
cdcdata2$Age_Years <- factor(cdcdata2$Age_Years, levels = age_levels)

#View the levels of the "Age_Years" column
levels(cdcdata2$Age_Years)

[1] "10-14 years" "15-19 years" "20-24 years" "25-29 years" "30-34 years"
[6] "35-39 years" "40-44 years" "45+ years"  

#Print the modified cdcdata dataset
print(cdcdata2)

# A tibble: 352 × 7
    Year Quarter Age_Years   Race_Ethnicity         Rate Unit        Significant
   <dbl>   <dbl> <fct>       <fct>                 <dbl> <chr>       <chr>      
 1  2023       3 10-14 years All races and origins   0.2 per 1,000 … <NA>       
 2  2023       3 10-14 years Hispanic                0.3 per 1,000 … <NA>       
 3  2023       3 10-14 years Non-Hispanic Black      0.4 per 1,000 … *          
 4  2023       3 10-14 years Non-Hispanic White      0.1 per 1,000 … <NA>       
 5  2023       3 15-19 years All races and origins  13.4 per 1,000 … *          
 6  2023       3 15-19 years Hispanic               21.3 per 1,000 … *          
 7  2023       3 15-19 years Non-Hispanic Black     19.7 per 1,000 … *          
 8  2023       3 15-19 years Non-Hispanic White      8.7 per 1,000 … *          
 9  2023       3 20-24 years All races and origins  56   per 1,000 … *          
10  2023       3 20-24 years Hispanic               78.3 per 1,000 … *          
# ℹ 342 more rows
…
[1] 327

We can see that 327 of the 352 observations were not significantly different from the same quarter of the previous year.

Now, let’s remove that column/variable altogether.

#Remove the "Significant" column
cdcdata2 <- cdcdata2 %>%
  select(-Significant)

#Print the new dataset
print(cdcdata2)

# A tibble: 352 × 6
    Year Quarter Age_Years   Race_Ethnicity         Rate Unit                
   <dbl>   <dbl> <fct>       <fct>                 <dbl> <chr>               
 1  2023       3 10-14 years All races and origins   0.2 per 1,000 population
 2  2023       3 10-14 years Hispanic                0.3 per 1,000 population
 3  2023       3 10-14 years Non-Hispanic Black      0.4 per 1,000 population
 4  2023       3 10-14 years Non-Hispanic White      0.1 per 1,000 population
 5  2023       3 15-19 years All races and origins  13.4 per 1,000 population
 6  2023       3 15-19 years Hispanic               21.3 per 1,000 population
 7  2023       3 15-19 years Non-Hispanic Black     19.7 per 1,000 population
 8  2023       3 15-19 years Non-Hispanic White      8.7 per 1,000 population
 9  2023       3 20-24 years All races and origins  56   per 1,000 population
10  2023       3 20-24 years Hispanic               78.3 per 1,000 population
# ℹ 342 more rows
…
45+ years
Non-Hispanic Black
1.2909091
0.1445998

45+ years
Non-Hispanic White
0.8363636
0.0809040

print(cdcdata2_agg)

# A tibble: 32 × 4
   Age_Years   Race_Ethnicity          mean     sd
   <fct>       <fct>                  <dbl>  <dbl>
 1 10-14 years All races and origins  0.2   0     
 2 10-14 years Hispanic               0.3   0     
 3 10-14 years Non-Hispanic Black     0.355 0.0522
 4 10-14 years Non-Hispanic White     0.1   0     
 5 15-19 years All races and origins 13.8   0.379 
 6 15-19 years Hispanic              21.3   0.319 
 7 15-19 years Non-Hispanic Black    21.2   1.16  
 8 15-19 years Non-Hispanic White     9.22  0.334 
 9 20-24 years All races and origins 60.3   1.99  
10 20-24 years Hispanic              81.9   1.80  
# ℹ 22 more rows
…
