Cassia Roth’s Data Analysis Portfolio - Fitting Exercise
…
# Use broom::tidy() to tidy results
tidy(mavo_lm1)

# A tibble: 2 × 5
  term        estimate std.error statistic  p.value
  <chr>          <dbl>     <dbl>     <dbl>    <dbl>
1 (Intercept)    323.     199.        1.62 1.07e- 1
2 DOSE            58.2      5.19     11.2  2.69e-20

# Produce predictions for RMSE and R-squared
mavo_lm1_pred <- predict(mavo_lm1, new_data = mavo_combined_subset %>% select(-Y))
mavo_lm1_pred

# A tibble: 120 × 1
   .pred
   <dbl>
 1 1778.
 2 1778.
 3 1778.
 4 1778.
 5 1778.
 6 1778.
 7 1778.
 8 1778.
 9 1778.
10 1778.
# ℹ 110 more rows

# Predicted numeric outcome named .pred. Now we will match predicted values with corresponding observed outcome values
mavo_lm1_pred <- bind_cols(mavo_lm1_pred, mavo_combined_subset %>% select(Y))
mavo_lm1_pred

# A tibble: 120 × 2
   .pred     Y
   <dbl> <dbl>
 1 1778. 2691.
 2 1778. 2639.
 3 1778. 2150.
 4 1778. 1789.
 5 1778. 3126.
 6 1778. 2337.
 7 1778. 3007.
 8 1778. 2796.
 9 1778. 3866.
10 1778. 1762.
# ℹ 110 more rows
…
# Produce predictions for RMSE and R-squared
mavo_lm2_pred <- predict(mavo_lm2, new_data = mavo_combined_subset %>% select(-Y))
mavo_lm2_pred

# A tibble: 120 × 1
   .pred
   <dbl>
 1 2691.
 2 1919.
 3 1974.
 4 1644.
 5 2135.
 6 2023.
 7 1549.
 8 2177.
 9 2354.
10 1196.
# ℹ 110 more rows

# Predicted numeric outcome named .pred. Now we will match predicted values with corresponding observed outcome values
mavo_lm2_pred <- bind_cols(mavo_lm2_pred, mavo_combined_subset %>% select(Y))
mavo_lm2_pred

# A tibble: 120 × 2
   .pred     Y
   <dbl> <dbl>
 1 2691. 2691.
 2 1919. 2639.
 3 1974. 2150.
 4 1644. 1789.
 5 2135. 3126.
 6 2023. 2337.
 7 1549. 3007.
 8 2177. 2796.
 9 2354. 3866.
10 1196. 1762.
# ℹ 110 more rows
…
mavo_log1_test <- mavo_log1_split %>% testing()

# Create a logistic model using logistic_reg() from parsnip
mavo_log1 <- logistic_reg() %>% set_engine("glm") %>% set_mode("classification") %>% #specify model
  fit(SEX ~ DOSE, data = mavo_log1_train) #Pass model object to fit(), specify model formula, provide training data

# Use broom::tidy() to tidy results
output_mavo_log1 <- tidy(mavo_log1)

# Predicting outcome categories
class_preds <- mavo_log1 %>% predict(new_data = mavo_log1_test, type = 'class') # New_data specifies dataset on which to predict new values; type class provides categorical predictions; standardized output from predict()
class_preds

# A tibble: 30 × 1
   .pred_class
   <fct>      
 1 1          
 2 1          
 3 1          
 4 1          
 5 1          
 6 1          
 7 1          
 8 1          
 9 1          
10 1          
# ℹ 20 more rows

# Estimating probabilities. Set type to prob to provide estimated probabilities for each outcome category
prob_preds <- mavo_log1 %>% predict(new_data = mavo_log1_test, type = 'prob')
prob_preds

# A tibble: 30 × 2
   .pred_1 .pred_2
     <dbl>   <dbl>
 1   0.884  0.116 
 2   0.884  0.116 
 3   0.884  0.116 
 4   0.884  0.116 
 5   0.930  0.0704
 6   0.930  0.0704
 7   0.930  0.0704
 8   0.930  0.0704
 9   0.930  0.0704
10   0.930  0.0704
# ℹ 20 more rows
…
# Use broom::tidy() to tidy results
tidy(mavo_lm3)

# A tibble: 2 × 5
  term        estimate std.error statistic  p.value
  <chr>          <dbl>     <dbl>     <dbl>    <dbl>
1 (Intercept)    535.     244.        2.19 3.08e- 2
2 DOSE            53.4      6.29      8.50 4.41e-13

# Produce predictions for RMSE and R-squared
mavo_lm3_pred <- predict(mavo_lm3, new_data = train_data %>% select(-Y))
mavo_lm3_pred

# A tibble: 90 × 1
   .pred
   <dbl>
 1 3207.
 2 1871.
 3 2539.
 4 1871.
 5 3207.
 6 1871.
 7 1871.
 8 1871.
 9 1871.
10 2539.
# ℹ 80 more rows

# Predicted numeric outcome named .pred. Now we will match predicted values with corresponding observed outcome values
mavo_lm3_pred <- bind_cols(mavo_lm3_pred, train_data %>% select(Y))
mavo_lm3_pred

# A tibble: 90 × 2
   .pred     Y
   <dbl> <dbl>
 1 3207. 3004.
 2 1871. 1347.
 3 2539. 2772.
 4 1871. 2028.
 5 3207. 2353.
 6 1871.  826.
 7 1871. 3866.
 8 1871. 3126.
 9 1871. 1108.
10 2539. 2815.
# ℹ 80 more rows
…
boot_pred <- array(NA, dim = c(nrow(train_data), length(lm4_boot))) # create an array vector to store the bootstrap data

# creating a loop
for (i in 1:length(lm4_boot)) {
  
  bootstrap <- analysis(lm4_boot$splits[[i]]) # extract the splits from the bootstrap 
  model <- lm(Y ~ ., data = bootstrap) # fit the model for the bootstrap using full model formula and bootstrap sample data
  pred <- predict(model, newdata = train_data) # predict the new data from training data
  boot_pred[,i] <- pred # put the predictions into the array vector
}

dat_bs <- analysis(lm4_boot$splits[[i]]) # extract individual bootstrap samples
print(dat_bs)

# A tibble: 90 × 6
       Y  DOSE   AGE SEX      WT    HT
   <dbl> <dbl> <dbl> <fct> <dbl> <dbl>
 1  826.    25    30 1     105.   1.88
 2 3594.    50    23 1      96.3  1.82
 3 3594.    50    23 1      96.3  1.82
 4 3609.    50    29 1      68.8  1.81
 5 3623.    50    32 1      92.2  1.80
 6 1949.    50    39 1      75.7  1.78
 7 2345.    50    31 1      85.9  1.72
 8  826.    25    30 1     105.   1.88
 9 2093.    25    39 2      58.2  1.62
10 1347.    25    41 1      81    1.75
# ℹ 80 more rows
…
The plot above shows the predicted values (black), mean predicted values from the bootstrap (blue), lower and upper limits of the median predicted values (red), compared to a 45 degree line (black, dotted). The predicted values follow the dotted line closely, showing a fairly good fit, however the mean and CI from bootstrapping follow a horizontal line and are more dense at lower values than higher values.

This plot shows that the model fit predictions from the cross validation are a better representation than the mean predictions made from bootstrapping. This may be because the mean can be shifted by skewness. The predictions also seem skewed as they become more sparse at higher values. The confidence interval bars (red) show the upper and lower limits predicted by bootstrapping. Although they follow a horizontal line, the CI bars are more dense towards the lower end of the y-axis, which also might represent skewness, or a trend that is not captured by the model. The mean values also seem to get sparser on the high end of the y-axis, indicating the same problem as the CI distribution. This might be fixed by adding more variables (columns) to the data set or increasing the sample size (rows) of the data in the model.

Exercise Part 3: Back to Cassia

Now, we will use the fit of model 2 from the training data to make predictions for the test data. This will give us an indication of how the model generalizes to data that wasn’t used to construct the model.

# ChatGPT helped me with this code. Assuming mavo_lm4 is already trained and test_data is prepared
# Make predictions on training data
train_pred <- predict(mavo_lm4, new_data = train_data)
print(train_pred)

# A tibble: 90 × 1
   .pred
   <dbl>
 1 3303.
 2 1953.
 3 2745.
 4 2081.
 5 2894.
 6 1265.
 7 2429.
 8 1976.
 9 1561.
10 2549.
# ℹ 80 more rows

# Make predictions on test data
test_pred <- predict(mavo_lm4, new_data = test_data)
print(test_pred)

# A tibble: 30 × 1
   .pred
   <dbl>
 1 1871.
 2 2665.
 3 2357.
 4 2954.
 5 2101.
 6 3479.
 7 3399.
 8 3214.
 9 2857.
10 1826.
# ℹ 20 more rows
…
