Cassia Roth’s Data Analysis Portfolio - Complex Data Exercise
…
# A tibble: 6 × 2
  text                  book              
  <chr>                 <chr>             
1 "A STUDY IN SCARLET"  A Study In Scarlet
2 ""                    A Study In Scarlet
3 "Table of contents"   A Study In Scarlet
4 ""                    A Study In Scarlet
5 "Part I"              A Study In Scarlet
6 "Mr. Sherlock Holmes" A Study In Scarlet

#Understanding all books in the data
book_titles <- holmes %>% distinct(book)
print(book_titles)

# A tibble: 48 × 1
   book                               
   <chr>                              
 1 A Study In Scarlet                 
 2 The Sign of the Four               
 3 A Scandal in Bohemia               
 4 The Red-Headed League              
 5 A Case of Identity                 
 6 The Boscombe Valley Mystery        
 7 The Five Orange Pips               
 8 The Man with the Twisted Lip       
 9 The Adventure of the Blue Carbuncle
10 The Adventure of the Speckled Band 
# ℹ 38 more rows
…
